module github.com/hbstack/site

go 1.18

require (
	github.com/GoogleChrome/workbox v7.0.0+incompatible // indirect
	github.com/KaTeX/KaTeX v0.16.9 // indirect
	github.com/gohugoio/hugo-mod-bootstrap-scss/v5 v5.20300.20200 // indirect
	github.com/gohugoio/hugo-mod-jslibs-dist/popperjs/v2 v2.21100.20000 // indirect
	github.com/hbstack/back-to-top v0.1.2 // indirect
	github.com/hbstack/base v0.4.0 // indirect
	github.com/hbstack/bigger-picture v0.9.2 // indirect
	github.com/hbstack/blog v0.22.1 // indirect
	github.com/hbstack/blog/modules/breadcrumb v0.1.22 // indirect
	github.com/hbstack/blog/modules/content-panel v0.1.21 // indirect
	github.com/hbstack/blog/modules/featured-image v0.2.21 // indirect
	github.com/hbstack/blog/modules/giscus v0.1.23 // indirect
	github.com/hbstack/blog/modules/heading-sign v0.1.23 // indirect
	github.com/hbstack/blog/modules/post-nav v0.3.4 // indirect
	github.com/hbstack/blog/modules/related-posts v0.2.4 // indirect
	github.com/hbstack/blog/modules/sidebar/posts v0.5.4 // indirect
	github.com/hbstack/blog/modules/sidebar/profile v1.1.4 // indirect
	github.com/hbstack/blog/modules/sidebar/taxonomies v0.3.13 // indirect
	github.com/hbstack/blog/modules/toc-scrollspy v0.1.20 // indirect
	github.com/hbstack/bootstrap v0.2.0 // indirect
	github.com/hbstack/breadcrumb v0.5.0 // indirect
	github.com/hbstack/carousel v0.2.4 // indirect
	github.com/hbstack/code-block-panel v0.1.1 // indirect
	github.com/hbstack/contact v0.2.0 // indirect
	github.com/hbstack/content-panel v0.5.0 // indirect
	github.com/hbstack/docs v0.10.0 // indirect
	github.com/hbstack/docs/modules/breadcrumb v0.1.9 // indirect
	github.com/hbstack/docs/modules/content-panel v0.1.8 // indirect
	github.com/hbstack/docs/modules/doc-nav v0.3.2 // indirect
	github.com/hbstack/docs/modules/featured-image v0.2.8 // indirect
	github.com/hbstack/docs/modules/giscus v0.1.10 // indirect
	github.com/hbstack/docs/modules/heading-sign v0.1.9 // indirect
	github.com/hbstack/docs/modules/toc-scrollspy v0.1.7 // indirect
	github.com/hbstack/featured-image v0.1.1 // indirect
	github.com/hbstack/footer v0.2.7 // indirect
	github.com/hbstack/footer/modules/socials v0.2.5 // indirect
	github.com/hbstack/form v0.1.1 // indirect
	github.com/hbstack/giscus v0.1.1 // indirect
	github.com/hbstack/github-releases v0.2.0 // indirect
	github.com/hbstack/hb v0.7.2 // indirect
	github.com/hbstack/header v0.12.1 // indirect
	github.com/hbstack/header/modules/banner v0.5.11 // indirect
	github.com/hbstack/header/modules/docsearch v0.1.23 // indirect
	github.com/hbstack/header/modules/language-picker v0.1.22 // indirect
	github.com/hbstack/header/modules/news v0.2.0 // indirect
	github.com/hbstack/header/modules/search v0.1.32 // indirect
	github.com/hbstack/header/modules/socials v0.1.28 // indirect
	github.com/hbstack/header/modules/theme-toggle v0.3.1 // indirect
	github.com/hbstack/header/themes/pills v0.2.18 // indirect
	github.com/hbstack/heading-sign v0.1.3 // indirect
	github.com/hbstack/iframe v0.1.1 // indirect
	github.com/hbstack/mermaid v0.1.0 // indirect
	github.com/hbstack/meta/recommended v0.2.10 // indirect
	github.com/hbstack/noscript v0.4.0 // indirect
	github.com/hbstack/pagination v0.5.0 // indirect
	github.com/hbstack/preferred-language v0.1.0 // indirect
	github.com/hbstack/progress-bar v0.1.0 // indirect
	github.com/hbstack/pwa v0.1.2 // indirect
	github.com/hbstack/scrollbar v0.1.0 // indirect
	github.com/hbstack/search v0.1.7 // indirect
	github.com/hbstack/slide v0.3.0 // indirect
	github.com/hbstack/snackbar v0.1.2 // indirect
	github.com/hbstack/socials v0.8.0 // indirect
	github.com/hbstack/syntax-highlighting v0.1.0 // indirect
	github.com/hbstack/syntax-highlighting/styles/gruvbox v0.1.0 // indirect
	github.com/hbstack/toc-scrollspy v0.1.0 // indirect
	github.com/henrygd/bigger-picture v1.1.12 // indirect
	github.com/hugomods/aos v0.1.0 // indirect
	github.com/hugomods/base v0.4.0 // indirect
	github.com/hugomods/bootstrap v0.13.0 // indirect
	github.com/hugomods/code-block-panel v0.4.0 // indirect
	github.com/hugomods/docsearch v0.1.0 // indirect
	github.com/hugomods/font-awesome v6.4.2+incompatible // indirect
	github.com/hugomods/fuse-js v0.1.0 // indirect
	github.com/hugomods/giscus v0.1.1 // indirect
	github.com/hugomods/google-adsense v0.1.0 // indirect
	github.com/hugomods/google-analytics v0.2.0 // indirect
	github.com/hugomods/gravatar v0.2.0 // indirect
	github.com/hugomods/hugopress v0.2.2 // indirect
	github.com/hugomods/i18n-js v0.2.1 // indirect
	github.com/hugomods/icons v0.6.0 // indirect
	github.com/hugomods/icons/vendors/bootstrap v0.5.1 // indirect
	github.com/hugomods/icons/vendors/font-awesome v0.6.1 // indirect
	github.com/hugomods/icons/vendors/simple-icons v1.0.20 // indirect
	github.com/hugomods/idb-js v0.1.0 // indirect
	github.com/hugomods/images v0.8.3 // indirect
	github.com/hugomods/katex v0.3.0 // indirect
	github.com/hugomods/mermaid v0.1.1 // indirect
	github.com/hugomods/pwa v0.5.1 // indirect
	github.com/hugomods/recaptcha-v2 v0.1.1 // indirect
	github.com/hugomods/search v0.7.0 // indirect
	github.com/hugomods/seo/modules/alternatives v0.1.0 // indirect
	github.com/hugomods/seo/modules/base v0.1.0 // indirect
	github.com/hugomods/seo/modules/favicons v0.2.1 // indirect
	github.com/hugomods/seo/modules/open-graph v0.1.0 // indirect
	github.com/hugomods/seo/modules/schema v0.1.1 // indirect
	github.com/hugomods/seo/modules/translations v0.1.0 // indirect
	github.com/hugomods/seo/modules/twitter-cards v0.1.0 // indirect
	github.com/hugomods/shortcodes v0.12.1 // indirect
	github.com/hugomods/simple-icons v9.19.1+incompatible // indirect
	github.com/hugomods/snackbar v0.1.2 // indirect
	github.com/hugomods/video-js v0.1.1 // indirect
	github.com/hugomods/workbox v0.1.0 // indirect
	github.com/jakearchibald/idb v7.1.1+incompatible // indirect
	github.com/krisk/Fuse v7.0.0+incompatible // indirect
	github.com/razonyang/hb-mod-thanks v0.5.0 // indirect
	github.com/twbs/bootstrap v5.3.2+incompatible // indirect
	github.com/twbs/icons v1.11.1 // indirect
)
